…
The `coronals` trajectories show clear influence from the surrounding
consonants.

``` r
data(coronals)
avg_trajs <- coronals %>%
  group_by(vowel, percent) %>%
  summarize(across(c(F1, F2), mean)) %>%
  print()
```

    ## `summarise()` regrouping output by 'vowel' (override with `.groups` argument)

    ## # A tibble: 273 x 4
    ## # Groups:   vowel [13]
    ##    vowel percent    F1    F2
    ##    <fct>   <dbl> <dbl> <dbl>
    ##  1 LOT         0  454. 1616.
    ##  2 LOT         5  592. 1346.
    ##  3 LOT        10  648. 1283.
    ##  4 LOT        15  651. 1238.
    ##  5 LOT        20  661. 1178.
    ##  6 LOT        25  651. 1176.
    ##  7 LOT        30  636. 1152.
    ##  8 LOT        35  630. 1148.
    ##  9 LOT        40  633. 1153.
    ## 10 LOT        45  625. 1158.
    ## # … with 263 more rows
…
